(kicad_sch
	(version 20231120)
	(generator "eeschema")
	(generator_version "8.0")
	(uuid "9645f3a6-6a6d-4c60-8047-9e1e31b98526")
	(paper "A4")
	(lib_symbols)
	(junction
		(at 105.029 76.454)
		(diameter 0)
		(color 0 0 0 0)
		(uuid "01261557-8ff6-44ae-a42a-a11b17ebb0e1")
	)
	(junction
		(at 105.029 50.546)
		(diameter 0)
		(color 0 0 0 0)
		(uuid "0e5329d9-1274-4d43-9e1a-c8ef570e6e89")
	)
	(junction
		(at 105.029 67.31)
		(diameter 0)
		(color 0 0 0 0)
		(uuid "3e35e0cb-dc09-415f-bc0b-fa1aacc823b5")
	)
	(junction
		(at 105.029 68.834)
		(diameter 0)
		(color 0 0 0 0)
		(uuid "74bd8e8f-233d-43b4-855b-125fe6ec31dd")
	)
	(junction
		(at 105.029 47.498)
		(diameter 0)
		(color 0 0 0 0)
		(uuid "94ea2958-f449-456a-8e9e-d346df018f1b")
	)
	(junction
		(at 105.029 49.022)
		(diameter 0)
		(color 0 0 0 0)
		(uuid "9b5397cd-0a60-4703-bf4b-0d394704ddf2")
	)
	(junction
		(at 124.46 43.942)
		(diameter 0)
		(color 0 0 0 0)
		(uuid "aa57de93-fa66-45f1-ab57-86141247e67a")
	)
	(junction
		(at 105.029 78.105)
		(diameter 0)
		(color 0 0 0 0)
		(uuid "b1d4cff9-e5d6-460a-8811-9780d5068315")
	)
	(wire
		(pts
			(xy 166.497 81.026) (xy 79.502 81.026)
		)
		(stroke
			(width 0)
			(type default)
		)
		(uuid "01b2d9c9-007f-40e6-8520-0e01478d221c")
	)
	(wire
		(pts
			(xy 58.293 45.72) (xy 58.293 43.942)
		)
		(stroke
			(width 0)
			(type default)
		)
		(uuid "035bfeed-ac76-4283-b13d-a7e4248ea9fc")
	)
	(wire
		(pts
			(xy 193.421 43.942) (xy 193.421 46.609)
		)
		(stroke
			(width 0)
			(type default)
		)
		(uuid "061a6879-55cf-4b6e-a047-f495c1b860be")
	)
	(wire
		(pts
			(xy 79.502 56.642) (xy 105.029 56.642)
		)
		(stroke
			(width 0)
			(type default)
		)
		(uuid "07f4346b-e73b-43cd-8e22-c4d454368dc8")
	)
	(wire
		(pts
			(xy 124.46 43.942) (xy 193.421 43.942)
		)
		(stroke
			(width 0)
			(type default)
		)
		(uuid "0beb3af5-e2dc-4d93-a9b5-f32a0395a7eb")
	)
	(wire
		(pts
			(xy 79.502 78.105) (xy 105.029 78.105)
		)
		(stroke
			(width 0)
			(type default)
		)
		(uuid "0e2f0757-b992-4e87-822b-35baa80585b4")
	)
	(wire
		(pts
			(xy 166.497 78.105) (xy 166.497 77.978)
		)
		(stroke
			(width 0)
			(type default)
		)
		(uuid "13565d8b-e240-4d11-b0c6-1c618c446d7f")
	)
	(wire
		(pts
			(xy 79.502 67.31) (xy 105.029 67.31)
		)
		(stroke
			(width 0)
			(type default)
		)
		(uuid "1524378e-6eee-40a1-8242-d4725929431d")
	)
	(wire
		(pts
			(xy 105.029 47.498) (xy 166.497 47.498)
		)
		(stroke
			(width 0)
			(type default)
		)
		(uuid "19c411a7-9541-4d39-81eb-b790147c9ab0")
	)
	(wire
		(pts
			(xy 79.502 55.118) (xy 105.029 55.118)
		)
		(stroke
			(width 0)
			(type default)
		)
		(uuid "1d73f0b8-5fcf-4963-95b6-176faa76772c")
	)
	(wire
		(pts
			(xy 79.502 76.454) (xy 79.502 76.581)
		)
		(stroke
			(width 0)
			(type default)
		)
		(uuid "1ee3f711-947a-4ffd-aed7-15b3dc126d24")
	)
	(wire
		(pts
			(xy 105.029 68.834) (xy 166.497 68.834)
		)
		(stroke
			(width 0)
			(type default)
		)
		(uuid "22f339b2-e5be-4d70-a5a0-d59aa896d289")
	)
	(wire
		(pts
			(xy 58.293 43.942) (xy 124.46 43.942)
		)
		(stroke
			(width 0)
			(type default)
		)
		(uuid "24288999-eecb-4c18-944d-1a6344394719")
	)
	(wire
		(pts
			(xy 79.502 82.677) (xy 105.029 82.677)
		)
		(stroke
			(width 0)
			(type default)
		)
		(uuid "25223fc8-7ef6-4236-a155-c7bafaf3eb6c")
	)
	(wire
		(pts
			(xy 105.029 76.454) (xy 79.502 76.454)
		)
		(stroke
			(width 0)
			(type default)
		)
		(uuid "25ae015e-7401-400e-88f7-8ab2229b0662")
	)
	(wire
		(pts
			(xy 105.029 67.31) (xy 166.497 67.31)
		)
		(stroke
			(width 0)
			(type default)
		)
		(uuid "4f417bf0-209a-41a6-b916-0ff5d1d22767")
	)
	(wire
		(pts
			(xy 79.502 79.502) (xy 79.502 79.629)
		)
		(stroke
			(width 0)
			(type default)
		)
		(uuid "5143a528-f138-4fd5-b166-473e49853114")
	)
	(wire
		(pts
			(xy 79.502 59.69) (xy 105.029 59.69)
		)
		(stroke
			(width 0)
			(type default)
		)
		(uuid "5671af26-c5d0-49ed-8537-97a3b88b86af")
	)
	(wire
		(pts
			(xy 105.029 50.546) (xy 166.497 50.546)
		)
		(stroke
			(width 0)
			(type default)
		)
		(uuid "57c4e334-a977-43c5-a994-6471c02bdcb8")
	)
	(wire
		(pts
			(xy 79.502 71.882) (xy 79.502 72.009)
		)
		(stroke
			(width 0)
			(type default)
		)
		(uuid "5cfadc7f-3694-4951-b049-c6034990923d")
	)
	(wire
		(pts
			(xy 124.46 45.847) (xy 124.46 43.942)
		)
		(stroke
			(width 0)
			(type default)
		)
		(uuid "71edf86b-04e7-4489-ab61-36d69727f0af")
	)
	(wire
		(pts
			(xy 79.502 65.786) (xy 166.497 65.786)
		)
		(stroke
			(width 0)
			(type default)
		)
		(uuid "74c40d4a-5d24-4bf6-ab4d-ed5d1da10ac9")
	)
	(wire
		(pts
			(xy 79.502 50.546) (xy 105.029 50.546)
		)
		(stroke
			(width 0)
			(type default)
		)
		(uuid "79077224-6b70-409b-936f-236572aab3a5")
	)
	(wire
		(pts
			(xy 79.502 81.026) (xy 79.502 81.153)
		)
		(stroke
			(width 0)
			(type default)
		)
		(uuid "87633562-85fd-4fcd-940c-8f0f07771d62")
	)
	(wire
		(pts
			(xy 166.497 79.502) (xy 79.502 79.502)
		)
		(stroke
			(width 0)
			(type default)
		)
		(uuid "992b759f-b1a3-4982-8cd4-476e99459757")
	)
	(wire
		(pts
			(xy 79.502 64.262) (xy 166.497 64.262)
		)
		(stroke
			(width 0)
			(type default)
		)
		(uuid "99bfd11a-04c5-4331-8f11-e2c96d610fc9")
	)
	(wire
		(pts
			(xy 79.502 58.166) (xy 105.029 58.166)
		)
		(stroke
			(width 0)
			(type default)
		)
		(uuid "a0533438-c9b5-4d5b-84ba-db236b250237")
	)
	(wire
		(pts
			(xy 79.502 68.834) (xy 105.029 68.834)
		)
		(stroke
			(width 0)
			(type default)
		)
		(uuid "a1643748-c8bc-410a-bdd7-b9f5d8bd4926")
	)
	(wire
		(pts
			(xy 79.502 68.834) (xy 79.502 68.961)
		)
		(stroke
			(width 0)
			(type default)
		)
		(uuid "b2d72af9-b2fe-4c20-b157-b2120ea02776")
	)
	(wire
		(pts
			(xy 166.497 70.485) (xy 166.497 70.358)
		)
		(stroke
			(width 0)
			(type default)
		)
		(uuid "b68ac792-28fe-4915-8214-5f202737ff41")
	)
	(wire
		(pts
			(xy 105.029 78.105) (xy 166.497 78.105)
		)
		(stroke
			(width 0)
			(type default)
		)
		(uuid "cf1802b1-50c5-44ca-b270-ed0ef8438ff6")
	)
	(wire
		(pts
			(xy 79.502 47.498) (xy 105.029 47.498)
		)
		(stroke
			(width 0)
			(type default)
		)
		(uuid "d3438235-372d-485c-8e12-d1e501548819")
	)
	(wire
		(pts
			(xy 105.029 49.022) (xy 166.497 49.022)
		)
		(stroke
			(width 0)
			(type default)
		)
		(uuid "dae7392c-2d4a-4bd2-a5b2-42fecc97adc3")
	)
	(wire
		(pts
			(xy 166.497 76.454) (xy 105.029 76.454)
		)
		(stroke
			(width 0)
			(type default)
		)
		(uuid "e11e910b-92e7-4ab7-9f25-658b1c6867da")
	)
	(wire
		(pts
			(xy 79.502 70.485) (xy 166.497 70.485)
		)
		(stroke
			(width 0)
			(type default)
		)
		(uuid "ef3e7f2f-6d8f-4884-bd16-413a5f0cc5c0")
	)
	(wire
		(pts
			(xy 79.502 49.022) (xy 105.029 49.022)
		)
		(stroke
			(width 0)
			(type default)
		)
		(uuid "f10f2849-fb9d-492f-ad26-fc60e20f0ec0")
	)
	(wire
		(pts
			(xy 166.497 71.882) (xy 79.502 71.882)
		)
		(stroke
			(width 0)
			(type default)
		)
		(uuid "f63d508c-dcb4-488e-a3ac-fae9e3a54914")
	)
	(sheet
		(at 37.592 45.72)
		(size 41.91 71.12)
		(fields_autoplaced yes)
		(stroke
			(width 0.1524)
			(type solid)
		)
		(fill
			(color 0 0 0 0.0000)
		)
		(uuid "0f87bc56-d5aa-438a-9f42-159e233a9ecd")
		(property "Sheetname" "Sheet_one"
			(at 37.592 45.0084 0)
			(effects
				(font
					(size 1.27 1.27)
				)
				(justify left bottom)
			)
		)
		(property "Sheetfile" "Sheet_one.kicad_sch"
			(at 37.592 117.4246 0)
			(effects
				(font
					(size 1.27 1.27)
				)
				(justify left top)
			)
		)
		(pin "AND_Out34" input
			(at 79.502 82.677 0)
			(effects
				(font
					(size 1.27 1.27)
				)
				(justify right)
			)
			(uuid "87a9cf51-9160-441b-a8ca-d15dfec1c98a")
		)
		(pin "GND" input
			(at 58.293 45.72 90)
			(effects
				(font
					(size 1.27 1.27)
				)
				(justify right)
			)
			(uuid "40a2b684-ef8e-4abe-a0c0-458e0298d468")
		)
		(pin "SCL_Soft" input
			(at 79.502 78.105 0)
			(effects
				(font
					(size 1.27 1.27)
				)
				(justify right)
			)
			(uuid "e904f66d-6c58-47af-a6b1-01a10159d0df")
		)
		(pin "SDA_Soft" input
			(at 79.502 76.581 0)
			(effects
				(font
					(size 1.27 1.27)
				)
				(justify right)
			)
			(uuid "2456d81f-5ac3-4bc3-b1dc-a064b4b75a99")
		)
		(pin "CH4_COMPOUT" input
			(at 79.502 56.642 0)
			(effects
				(font
					(size 1.27 1.27)
				)
				(justify right)
			)
			(uuid "e2d3b1ad-652d-464d-b7df-62d174fdd960")
		)
		(pin "CH3_COMPOUT" input
			(at 79.502 55.118 0)
			(effects
				(font
					(size 1.27 1.27)
				)
				(justify right)
			)
			(uuid "3eea9989-5161-43f8-9eaf-8558137b52df")
		)
		(pin "+4V" input
			(at 79.502 47.498 0)
			(effects
				(font
					(size 1.27 1.27)
				)
				(justify right)
			)
			(uuid "e8fbce39-bc85-4580-84b8-83de2e050911")
		)
		(pin "SCL_Hard" input
			(at 79.502 81.153 0)
			(effects
				(font
					(size 1.27 1.27)
				)
				(justify right)
			)
			(uuid "ae9db26f-3085-4a0c-82de-10c5535b3257")
		)
		(pin "SDA_Hard" input
			(at 79.502 79.629 0)
			(effects
				(font
					(size 1.27 1.27)
				)
				(justify right)
			)
			(uuid "3498b095-9aac-4dff-a764-7810d283af00")
		)
		(pin "IMON" input
			(at 79.502 72.009 0)
			(effects
				(font
					(size 1.27 1.27)
				)
				(justify right)
			)
			(uuid "756570af-9790-47ec-b1bd-e2f198a4c78b")
		)
		(pin "VMON" input
			(at 79.502 70.485 0)
			(effects
				(font
					(size 1.27 1.27)
				)
				(justify right)
			)
			(uuid "19e8cc08-f6cf-4fa3-8688-62a798db0115")
		)
		(pin "+5V" input
			(at 79.502 50.546 0)
			(effects
				(font
					(size 1.27 1.27)
				)
				(justify right)
			)
			(uuid "7e9fd980-aed9-4b58-9b59-4b185a074b60")
		)
		(pin "-4V" input
			(at 79.502 49.022 0)
			(effects
				(font
					(size 1.27 1.27)
				)
				(justify right)
			)
			(uuid "744583d6-fdbd-4ee1-93ed-b8350bab5c4e")
		)
		(pin "CH2_Analog" input
			(at 79.502 65.786 0)
			(effects
				(font
					(size 1.27 1.27)
				)
				(justify right)
			)
			(uuid "d7d83b2d-47ac-4fae-a049-6a39b91270a9")
		)
		(pin "DACOUT2" input
			(at 79.502 59.69 0)
			(effects
				(font
					(size 1.27 1.27)
				)
				(justify right)
			)
			(uuid "cc47de14-47e2-4f3a-a1b8-de03597e9c92")
		)
		(pin "CH1_Analog" input
			(at 79.502 64.262 0)
			(effects
				(font
					(size 1.27 1.27)
				)
				(justify right)
			)
			(uuid "851366a0-d627-451c-919b-f3d0ca8b508f")
		)
		(pin "DACOUT1" input
			(at 79.502 58.166 0)
			(effects
				(font
					(size 1.27 1.27)
				)
				(justify right)
			)
			(uuid "13a9d6db-32cb-43ac-be8d-ca27c21121aa")
		)
		(pin "CH4_Analog" input
			(at 79.502 68.961 0)
			(effects
				(font
					(size 1.27 1.27)
				)
				(justify right)
			)
			(uuid "0944d80d-ccc4-41cd-8118-940c7fe8c5cb")
		)
		(pin "CH3_Analog" input
			(at 79.502 67.31 0)
			(effects
				(font
					(size 1.27 1.27)
				)
				(justify right)
			)
			(uuid "1af9935d-105b-4956-bb46-9f8a49374460")
		)
		(instances
			(project "Distrib_Board2"
				(path "/9645f3a6-6a6d-4c60-8047-9e1e31b98526"
					(page "2")
				)
			)
		)
	)
	(sheet
		(at 166.497 46.609)
		(size 53.34 72.39)
		(fields_autoplaced yes)
		(stroke
			(width 0.1524)
			(type solid)
		)
		(fill
			(color 0 0 0 0.0000)
		)
		(uuid "3b3c6131-fe5e-4c61-96dd-298037bff5c3")
		(property "Sheetname" "Sheet_three"
			(at 166.497 45.8974 0)
			(effects
				(font
					(size 1.27 1.27)
				)
				(justify left bottom)
			)
		)
		(property "Sheetfile" "Sheet_three.kicad_sch"
			(at 166.497 119.5836 0)
			(effects
				(font
					(size 1.27 1.27)
				)
				(justify left top)
			)
		)
		(pin "GND" input
			(at 193.421 46.609 90)
			(effects
				(font
					(size 1.27 1.27)
				)
				(justify right)
			)
			(uuid "3762a9d6-107e-4f2e-9bbe-dcf755ebf05d")
		)
		(pin "+4V" input
			(at 166.497 47.498 180)
			(effects
				(font
					(size 1.27 1.27)
				)
				(justify left)
			)
			(uuid "0aa8351b-ef5f-47e9-a851-90135fae7c01")
		)
		(pin "CH3_Analog" input
			(at 166.497 67.31 180)
			(effects
				(font
					(size 1.27 1.27)
				)
				(justify left)
			)
			(uuid "533507df-0acd-4d57-ae02-6f4fa8853c68")
		)
		(pin "CH4_Analog" input
			(at 166.497 68.834 180)
			(effects
				(font
					(size 1.27 1.27)
				)
				(justify left)
			)
			(uuid "1932656b-f737-4b85-8ea1-2064c7e89f2a")
		)
		(pin "+5V" input
			(at 166.497 50.546 180)
			(effects
				(font
					(size 1.27 1.27)
				)
				(justify left)
			)
			(uuid "0ea254a1-6726-45a4-bd73-06d7aabb07ca")
		)
		(pin "SDA_Soft" input
			(at 166.497 76.454 180)
			(effects
				(font
					(size 1.27 1.27)
				)
				(justify left)
			)
			(uuid "0dce948e-c918-4d1f-8afb-37f2c5e7e65e")
		)
		(pin "IMON" input
			(at 166.497 71.882 180)
			(effects
				(font
					(size 1.27 1.27)
				)
				(justify left)
			)
			(uuid "c63063b6-1eb9-424b-91f6-90c7867a8fe6")
		)
		(pin "VMON" input
			(at 166.497 70.358 180)
			(effects
				(font
					(size 1.27 1.27)
				)
				(justify left)
			)
			(uuid "b294d763-d92b-436f-86bf-119af84cf1ee")
		)
		(pin "SCL_Soft" input
			(at 166.497 77.978 180)
			(effects
				(font
					(size 1.27 1.27)
				)
				(justify left)
			)
			(uuid "5d92e84b-1485-4ae7-a10a-68a06bb0e472")
		)
		(pin "-4V" input
			(at 166.497 49.022 180)
			(effects
				(font
					(size 1.27 1.27)
				)
				(justify left)
			)
			(uuid "e7ef1247-979d-4770-81c4-31135f470f99")
		)
		(pin "CH2_Analog" input
			(at 166.497 65.786 180)
			(effects
				(font
					(size 1.27 1.27)
				)
				(justify left)
			)
			(uuid "fd8a3c1c-107c-4268-bae5-1426197100d5")
		)
		(pin "CH1_Analog" input
			(at 166.497 64.262 180)
			(effects
				(font
					(size 1.27 1.27)
				)
				(justify left)
			)
			(uuid "e03a62d9-89fb-48ef-975a-8c80d6c91ef5")
		)
		(pin "SDA_Hard" input
			(at 166.497 79.502 180)
			(effects
				(font
					(size 1.27 1.27)
				)
				(justify left)
			)
			(uuid "333f0cf4-3d48-41d5-8bd8-4383ed6a0a83")
		)
		(pin "SCL_Hard" input
			(at 166.497 81.026 180)
			(effects
				(font
					(size 1.27 1.27)
				)
				(justify left)
			)
			(uuid "c6e4bbe4-f86b-482c-a1f1-47026aee98da")
		)
		(instances
			(project "Distrib_Board2"
				(path "/9645f3a6-6a6d-4c60-8047-9e1e31b98526"
					(page "4")
				)
			)
		)
	)
	(sheet
		(at 105.029 45.847)
		(size 39.37 71.12)
		(fields_autoplaced yes)
		(stroke
			(width 0.1524)
			(type solid)
		)
		(fill
			(color 0 0 0 0.0000)
		)
		(uuid "febb5d1f-65c6-48bf-b2df-62b081383605")
		(property "Sheetname" "Sheet_two"
			(at 105.029 45.1354 0)
			(effects
				(font
					(size 1.27 1.27)
				)
				(justify left bottom)
			)
		)
		(property "Sheetfile" "Sheet_two.kicad_sch"
			(at 105.029 117.5516 0)
			(effects
				(font
					(size 1.27 1.27)
				)
				(justify left top)
			)
		)
		(pin "GND" input
			(at 124.46 45.847 90)
			(effects
				(font
					(size 1.27 1.27)
				)
				(justify right)
			)
			(uuid "88dffba6-d31a-4d66-b93b-04a185090540")
		)
		(pin "+5V" input
			(at 105.029 50.546 180)
			(effects
				(font
					(size 1.27 1.27)
				)
				(justify left)
			)
			(uuid "cfb2c79d-7801-448d-9ed4-41cd02f98cd1")
		)
		(pin "DACOUT2" input
			(at 105.029 59.69 180)
			(effects
				(font
					(size 1.27 1.27)
				)
				(justify left)
			)
			(uuid "e5369f97-611e-4c41-b4b0-3194736b74dd")
		)
		(pin "+4V" input
			(at 105.029 47.498 180)
			(effects
				(font
					(size 1.27 1.27)
				)
				(justify left)
			)
			(uuid "f8a4be60-8568-4e29-b672-5381401eb786")
		)
		(pin "DACOUT1" input
			(at 105.029 58.166 180)
			(effects
				(font
					(size 1.27 1.27)
				)
				(justify left)
			)
			(uuid "a70fe224-7e20-4f57-913a-8296044a822a")
		)
		(pin "SCL_Soft" input
			(at 105.029 78.105 180)
			(effects
				(font
					(size 1.27 1.27)
				)
				(justify left)
			)
			(uuid "6cbeb8dd-ac45-4707-b084-03a99a166811")
		)
		(pin "SDA_Soft" input
			(at 105.029 76.454 180)
			(effects
				(font
					(size 1.27 1.27)
				)
				(justify left)
			)
			(uuid "f05c249d-fe12-4f06-975b-fa118f539c9f")
		)
		(pin "CH4_COMPOUT" input
			(at 105.029 56.642 180)
			(effects
				(font
					(size 1.27 1.27)
				)
				(justify left)
			)
			(uuid "c4d36092-8981-47c0-b26f-99aba9f97883")
		)
		(pin "AND_Out34" input
			(at 105.029 82.677 180)
			(effects
				(font
					(size 1.27 1.27)
				)
				(justify left)
			)
			(uuid "28ae01a3-0fdb-454c-8977-7d05fdf25a51")
		)
		(pin "CH3_COMPOUT" input
			(at 105.029 55.118 180)
			(effects
				(font
					(size 1.27 1.27)
				)
				(justify left)
			)
			(uuid "660e604d-dc46-4ed0-ad15-c119cfcb5162")
		)
		(pin "CH4_Analog" input
			(at 105.029 68.834 180)
			(effects
				(font
					(size 1.27 1.27)
				)
				(justify left)
			)
			(uuid "400887e1-e2cb-4f94-8f95-021ae7239809")
		)
		(pin "-4V" input
			(at 105.029 49.022 180)
			(effects
				(font
					(size 1.27 1.27)
				)
				(justify left)
			)
			(uuid "14b177cf-3eb4-4171-967c-5a89c163d480")
		)
		(pin "CH3_Analog" input
			(at 105.029 67.31 180)
			(effects
				(font
					(size 1.27 1.27)
				)
				(justify left)
			)
			(uuid "125c03e4-8ef7-465e-81be-9bb27010c424")
		)
		(instances
			(project "Distrib_Board2"
				(path "/9645f3a6-6a6d-4c60-8047-9e1e31b98526"
					(page "3")
				)
			)
		)
	)
	(sheet_instances
		(path "/"
			(page "1")
		)
	)
)
